%YAML 1.1
%TAG !u! tag:unity3d.com,2011:
--- !u!21 &2100000
Material:
  serializedVersion: 6
  m_ObjectHideFlags: 0
  m_CorrespondingSourceObject: {fileID: 0}
  m_PrefabInstance: {fileID: 0}
  m_PrefabAsset: {fileID: 0}
  m_Name: MenuBackground
  m_Shader: {fileID: 4800000, guid: f95809ea39d7b5f47a3b743bc5241a5d, type: 3}
  m_ShaderKeywords: 
  m_LightmapFlags: 4
  m_EnableInstancingVariants: 0
  m_DoubleSidedGI: 0
  m_CustomRenderQueue: -1
  stringTagMap: {}
  disabledShaderPasses: []
  m_SavedProperties:
    serializedVersion: 3
    m_TexEnvs:
    - _BackGround:
        m_Texture: {fileID: 2800000, guid: 963a22361aaab2243bb7a2174e27a7d0, type: 3}
        m_Scale: {x: 1, y: 1}
        m_Offset: {x: 0, y: 0}
    - _BotBackground:
        m_Texture: {fileID: 2800000, guid: 379ab104ee0313840902cefe1b7c8e21, type: 3}
        m_Scale: {x: 0.53, y: 1.48}
        m_Offset: {x: 0, y: 0}
    - _DisTex:
        m_Texture: {fileID: 2800000, guid: f53ce362fc059444fbcb16ea59cafdf7, type: 3}
        m_Scale: {x: 1, y: 1}
        m_Offset: {x: 0, y: 0}
    - _TopBackground:
        m_Texture: {fileID: 2800000, guid: 7f134135e34b1a544b5c144e2ca90019, type: 3}
        m_Scale: {x: 1.73, y: 3.46}
        m_Offset: {x: 0, y: 0}
    m_Floats:
    - _ColorB: 1
    - _ColorG: 1
    - _ColorR: 1
    - _DisSpeed: 0.142
    - _DisValue: 4.49
    - _Glow: 1.63
    - _RangeColor: 4.61
    - _SpeedBot: -0.07
    - _SpeedTop: -0.04
    m_Colors:
    - _BackgroundColor: {r: 1, g: 1, b: 1, a: 1}
  m_BuildTextureStacks: []
